E:\maven\gmail-demo\src\main\java\com\selenium\gmail\base\basetest.java
E:\maven\gmail-demo\src\main\java\com\selenium\gmail\util\datautility.java
E:\maven\gmail-demo\src\main\java\com\selenium\gmail\util\ExtentManager.java
